Running N = 8 with dt = 0.01
8 0.01 1.0 2 1
Running with Custom DG solver ...
Num unknowns 1920
DONE
Number of time steps: 100
Num inner iterations: 0
Number of mesh cells: 128
p*dx -2.3418766925686896e-16
div(u)|Vp 8.234154099303242e-13
div(u)|Vu 8.227931489962225e-13
div(u)|DG0 1.1679546219056647e-13
div(u)|DG1 8.234154099303242e-13
======= ========== ========== ========== ===== ===== ===== ========= =====
 Discr.        Errors in L2 norm         Convergence rates     Duration   
------- -------------------------------- ----------------- ---------------
      h         u0         u1          p    u0    u1     p wallclock  rate
======= ========== ========== ========== ===== ===== ===== ========= =====
0.35355   2.36e-02   2.36e-02   7.18e-02                        8.2s
======= ========== ========== ========== ===== ===== ===== ========= =====

======= ========== ========== ========== ===== ===== ===== ========= =====
 Discr.        Errors in H1 norm         Convergence rates     Duration   
------- -------------------------------- ----------------- ---------------
      h         u0         u1          p    u0    u1     p wallclock  rate
======= ========== ========== ========== ===== ===== ===== ========= =====
0.35355   3.14e-01   3.14e-01   2.37e-01                        8.2s
======= ========== ========== ========== ===== ===== ===== ========= =====

Running N = 16 with dt = 0.01
16 0.01 1.0 2 1
Running with Custom DG solver ...
Num unknowns 7680
DONE
Number of time steps: 100
Num inner iterations: 0
Number of mesh cells: 512
p*dx 1.4649739754624136e-15
div(u)|Vp 1.1267135372842555e-11
div(u)|Vu 1.1336702135966156e-11
div(u)|DG0 1.8554047187535616e-12
div(u)|DG1 1.1267135372842555e-11
======= ========== ========== ========== ===== ===== ===== ========= =====
 Discr.        Errors in L2 norm         Convergence rates     Duration   
------- -------------------------------- ----------------- ---------------
      h         u0         u1          p    u0    u1     p wallclock  rate
======= ========== ========== ========== ===== ===== ===== ========= =====
0.35355   2.36e-02   2.36e-02   7.18e-02                        8.2s
0.17678   2.40e-03   2.40e-03   9.68e-03  3.29  3.29  2.89     17.7s  1.11
======= ========== ========== ========== ===== ===== ===== ========= =====

======= ========== ========== ========== ===== ===== ===== ========= =====
 Discr.        Errors in H1 norm         Convergence rates     Duration   
------- -------------------------------- ----------------- ---------------
      h         u0         u1          p    u0    u1     p wallclock  rate
======= ========== ========== ========== ===== ===== ===== ========= =====
0.35355   3.14e-01   3.14e-01   2.37e-01                        8.2s
0.17678   7.51e-02   7.51e-02   6.38e-02  2.06  2.06  1.89     17.7s  1.11
======= ========== ========== ========== ===== ===== ===== ========= =====

Running N = 24 with dt = 0.01
24 0.01 1.0 2 1
Running with Custom DG solver ...
Num unknowns 17280
DONE
Number of time steps: 100
Num inner iterations: 0
Number of mesh cells: 1152
p*dx 3.470357681778502e-14
div(u)|Vp 3.134055977701182e-11
div(u)|Vu 3.133639810807358e-11
div(u)|DG0 6.838973831690964e-12
div(u)|DG1 3.134055977701182e-11
======= ========== ========== ========== ===== ===== ===== ========= =====
 Discr.        Errors in L2 norm         Convergence rates     Duration   
------- -------------------------------- ----------------- ---------------
      h         u0         u1          p    u0    u1     p wallclock  rate
======= ========== ========== ========== ===== ===== ===== ========= =====
0.35355   2.36e-02   2.36e-02   7.18e-02                        8.2s
0.17678   2.40e-03   2.40e-03   9.68e-03  3.29  3.29  2.89     17.7s  1.11
0.11785   6.92e-04   6.92e-04   2.81e-03  3.07  3.07  3.05     53.2s  2.71
======= ========== ========== ========== ===== ===== ===== ========= =====

======= ========== ========== ========== ===== ===== ===== ========= =====
 Discr.        Errors in H1 norm         Convergence rates     Duration   
------- -------------------------------- ----------------- ---------------
      h         u0         u1          p    u0    u1     p wallclock  rate
======= ========== ========== ========== ===== ===== ===== ========= =====
0.35355   3.14e-01   3.14e-01   2.37e-01                        8.2s
0.17678   7.51e-02   7.51e-02   6.38e-02  2.06  2.06  1.89     17.7s  1.11
0.11785   3.42e-02   3.42e-02   3.20e-02  1.94  1.94  1.70     53.2s  2.71
======= ========== ========== ========== ===== ===== ===== ========= =====

Running N = 32 with dt = 0.01
32 0.01 1.0 2 1
Running with Custom DG solver ...
Num unknowns 30720
DONE
Number of time steps: 100
Num inner iterations: 0
Number of mesh cells: 2048
p*dx 1.8643940558060734e-15
div(u)|Vp 4.6832167773421426e-11
div(u)|Vu 4.6988798816149734e-11
div(u)|DG0 1.3873346915715956e-11
div(u)|DG1 4.6832167773421426e-11
======= ========== ========== ========== ===== ===== ===== ========= =====
 Discr.        Errors in L2 norm         Convergence rates     Duration   
------- -------------------------------- ----------------- ---------------
      h         u0         u1          p    u0    u1     p wallclock  rate
======= ========== ========== ========== ===== ===== ===== ========= =====
0.35355   2.36e-02   2.36e-02   7.18e-02                        8.2s
0.17678   2.40e-03   2.40e-03   9.68e-03  3.29  3.29  2.89     17.7s  1.11
0.11785   6.92e-04   6.92e-04   2.81e-03  3.07  3.07  3.05     53.2s  2.71
0.08839   2.94e-04   2.94e-04   1.16e-03  2.97  2.97  3.09  2m 12.7s  3.17
======= ========== ========== ========== ===== ===== ===== ========= =====

======= ========== ========== ========== ===== ===== ===== ========= =====
 Discr.        Errors in H1 norm         Convergence rates     Duration   
------- -------------------------------- ----------------- ---------------
      h         u0         u1          p    u0    u1     p wallclock  rate
======= ========== ========== ========== ===== ===== ===== ========= =====
0.35355   3.14e-01   3.14e-01   2.37e-01                        8.2s
0.17678   7.51e-02   7.51e-02   6.38e-02  2.06  2.06  1.89     17.7s  1.11
0.11785   3.42e-02   3.42e-02   3.20e-02  1.94  1.94  1.70     53.2s  2.71
0.08839   1.97e-02   1.97e-02   1.98e-02  1.92  1.92  1.66  2m 12.7s  3.17
======= ========== ========== ========== ===== ===== ===== ========= =====

Running N = 40 with dt = 0.01
40 0.01 1.0 2 1
Running with Custom DG solver ...
Num unknowns 48000
DONE
Number of time steps: 100
Num inner iterations: 0
Number of mesh cells: 3200
p*dx 1.1590619956869386e-13
div(u)|Vp 1.3085538208557079e-10
div(u)|Vu 1.3084794412860456e-10
div(u)|DG0 3.839356610413347e-11
div(u)|DG1 1.3085538208557079e-10
======= ========== ========== ========== ===== ===== ===== ========= =====
 Discr.        Errors in L2 norm         Convergence rates     Duration   
------- -------------------------------- ----------------- ---------------
      h         u0         u1          p    u0    u1     p wallclock  rate
======= ========== ========== ========== ===== ===== ===== ========= =====
0.35355   2.36e-02   2.36e-02   7.18e-02                        8.2s
0.17678   2.40e-03   2.40e-03   9.68e-03  3.29  3.29  2.89     17.7s  1.11
0.11785   6.92e-04   6.92e-04   2.81e-03  3.07  3.07  3.05     53.2s  2.71
0.08839   2.94e-04   2.94e-04   1.16e-03  2.97  2.97  3.09  2m 12.7s  3.17
0.07071   1.51e-04   1.51e-04   5.91e-04  2.99  2.99  3.01  4m 47.9s  3.47
======= ========== ========== ========== ===== ===== ===== ========= =====

======= ========== ========== ========== ===== ===== ===== ========= =====
 Discr.        Errors in H1 norm         Convergence rates     Duration   
------- -------------------------------- ----------------- ---------------
      h         u0         u1          p    u0    u1     p wallclock  rate
======= ========== ========== ========== ===== ===== ===== ========= =====
0.35355   3.14e-01   3.14e-01   2.37e-01                        8.2s
0.17678   7.51e-02   7.51e-02   6.38e-02  2.06  2.06  1.89     17.7s  1.11
0.11785   3.42e-02   3.42e-02   3.20e-02  1.94  1.94  1.70     53.2s  2.71
0.08839   1.97e-02   1.97e-02   1.98e-02  1.92  1.92  1.66  2m 12.7s  3.17
0.07071   1.26e-02   1.26e-02   1.39e-02  1.99  1.99  1.61  4m 47.9s  3.47
======= ========== ========== ========== ===== ===== ===== ========= =====
